^D:\VSPROJECTS\COMPUTERVISION\EDGEDETECTION\EDGEDETECTION\STDAFX.CPP
/c /IC:\opencv\build\include\opencv /IC:\opencv\build\include\opencv2 /IC:\opencv\build\include /ZI /nologo /W3 /WX- /sdl /Od /Oy- /D WIN32 /D _DEBUG /D _CONSOLE /D _UNICODE /D UNICODE /Gm /EHsc /RTC1 /MDd /GS /fp:precise /Zc:wchar_t /Zc:forScope /Yc"stdafx.h" /Fp"DEBUG\EDGEDETECTION.PCH" /Fo"DEBUG\\" /Fd"DEBUG\VC110.PDB" /Gd /TP /analyze- D:\VSPROJECTS\COMPUTERVISION\EDGEDETECTION\EDGEDETECTION\STDAFX.CPP
^D:\VSPROJECTS\COMPUTERVISION\EDGEDETECTION\EDGEDETECTION\EDGEDETECTION.CPP
/c /IC:\opencv\build\include\opencv /IC:\opencv\build\include\opencv2 /IC:\opencv\build\include /ZI /nologo /W3 /WX- /sdl /Od /Oy- /D WIN32 /D _DEBUG /D _CONSOLE /D _UNICODE /D UNICODE /Gm /EHsc /RTC1 /MDd /GS /fp:precise /Zc:wchar_t /Zc:forScope /Fo"DEBUG\\" /Fd"DEBUG\VC110.PDB" /Gd /TP /analyze- D:\VSPROJECTS\COMPUTERVISION\EDGEDETECTION\EDGEDETECTION\EDGEDETECTION.CPP
